{
  "shell_port": 33717,
  "iopub_port": 50673,
  "stdin_port": 49221,
  "control_port": 42033,
  "hb_port": 37597,
  "ip": "127.0.0.1",
  "key": "5d4b8c45-09967990bff6e87ac13e4995",
  "transport": "tcp",
  "signature_scheme": "hmac-sha256",
  "kernel_name": ""
}